<svg width="22" height="22" viewBox="0 0 22 22" fill="none" xmlns="http://www.w3.org/2000/svg">
<path d="M0.5 9.5V0.5H9.5V9.5H0.5Z" stroke="#1C1C1E"/>
<path d="M21.5 0.5L21.5 9.5L12.5 9.5L12.5 0.5L21.5 0.5Z" stroke="#1C1C1E"/>
<path d="M0.5 21.5V12.5H9.5V21.5H0.5Z" stroke="#1C1C1E"/>
<path d="M21.5 12.5L21.5 21.5L12.5 21.5L12.5 12.5L21.5 12.5Z" stroke="#1C1C1E"/>
</svg>
